ave8_sort_cybusM/ave8_sort/simulation_work/sim_cycle_sort/sort_SA_test.vcd
$date
     Nov 11, 2011       09:50:36
$end

$version
              SystemC 2.2.0 --- Dec  3 2010 14:35:03
$end

$timescale
     1 ps
$end

$scope module SystemC $end
$var wire   32  aaa  Cysim_State [31:0]  $end
$var wire    8  aab  out_sorted [7:0]  $end
$var wire   32  aac  sort_SA_bus1_CBM_write_data [31:0]  $end
$var wire    1  aad  sort_SA_bus1_CBM_write_req       $end
$var wire    1  aae  sort_SA_bus1_CBM_read_req       $end
$var wire    1  aaf  sort_SA_bus1_CBM_split       $end
$var wire    1  aag  sort_SA_bus1_CBM_retry       $end
$var wire    1  aah  sort_SA_bus1_CBM_error       $end
$var wire    1  aai  sort_SA_bus1_CBM_busy       $end
$var wire   32  aaj  sort_SA_bus1_CBM_read_data [31:0]  $end
$var wire    3  aak  sort_SA_bus1_CBM_size [2:0]  $end
$var wire   32  aal  sort_SA_bus1_CBM_addr [31:0]  $end
$var wire    1  aam  bus1_HRESETn       $end
$var wire    1  aan  bus1_HCLK       $end
$upscope $end
$enddefinitions  $end

$comment
All initial values are dumped below at time 0 sec = 0 timescale units.
$end

$dumpvars
b0 aaa
b0 aab
b0 aac
0aad
0aae
0aaf
0aag
0aah
0aai
b0 aaj
b0 aak
b0 aal
0aam
0aan
$end

#10000
1aan

#10010
b10011010010011101011001101000011 aac
1aae
b111 aak
b10001100011111110000101010101100 aal

#15000
0aan

#20000
1aan

#25000
0aan

#30000
1aan

#32510
1aam

#35000
0aan

#40000
b1 aaa
1aan

#45000
0aan

#50000
b10 aaa
1aan

#50010
b10011111101000011101111011010011 aac
1aad
b11 aak
b11011011101000100101001011111011 aal

#55000
0aan

#60000
1aan

#60010
b11100100010010110011110001000110 aac
0aae
b10 aak
b10100101010110010101000100010101 aal

#65000
0aan

#70000
1aan

#70010
b1111010010010000100001011000001 aac
0aad
b0 aak
b1110100001001011110111011000 aal

#75000
0aan

#80000
1aan

#80010
b10010001011010110101111001011000 aac
1aae
b111 aak
b11001010101011100111110111100110 aal

#85000
0aan

#90000
1aan

#90010
b1010110010111111001100001001000 aac
1aad
b101 aak
b1100100100011011000101101010001 aal

#95000
0aan

#100000
1aan

#100010
b11010101001001101001001011110011 aac
0aad
b100 aak
b10110010011100001101100001001 aal

#105000
0aan

#110000
1aan

#110010
b11011110101111100000100111000000 aac
1aad
b110 aak
b11110101000010000001111011000101 aal

#115000
0aan

#120000
1aan

#120010
b1110110001000111000001011110011 aac
0aae
b11 aak
b11111010100001101011101101010010 aal

#125000
0aan

#130000
1aan

#130010
b10111000011110110110000110100111 aac
0aad
1aae
b10000101001111100000001100011101 aal

#135000
0aan

#140000
1aan

#140010
b11110001110101011101001001111111 aac
1aad
b1 aak
b10100011110100011101110100100000 aal

#145000
0aan

#150000
1aan

#150010
b1111001001111011110000010010111 aac
0aad
0aae
b111 aak
b11000010001101001010001000100000 aal

#155000
0aan

#160000
1aan

#160010
b1110100110001100100010010110111 aac
1aae
b110 aak
b1000011101110011110101010100011 aal

#165000
0aan

#170000
1aan

#170010
b1010010111110101110011110100100 aac
0aae
b10 aak
b110111011011111101100000011100 aal

#175000
0aan

#180000
1aan

#180010
b10011101111011110110001011110100 aac
b101 aak
b10011110000111010101110000110101 aal

#185000
0aan

#190000
1aan

#190010
b1110011001011111110110000101010 aac
1aad
b111 aak
b1100010111100001111000100010001 aal

#195000
0aan

#200000
1aan

#200010
b10110010100101111111010101000001 aac
b1011100000010001011010110111010 aal

#205000
0aan

#210000
1aan

#210010
b10100111001101000010111101100110 aac
1aae
b1 aak
b11001011010100110111111100111 aal

#215000
0aan

#220000
1aan

#220010
b100001000000010101000001011011 aac
0aad
0aae
b11 aak
b10101011101011101110110001110111 aal

#225000
0aan

#230000
1aan

#230010
b1010011001101100100101110001100 aac
1aad
1aae
b110 aak
b11000000001011001111011110000000 aal

#235000
0aan

#240000
1aan

#240010
b11111101000001100001000101000100 aac
0aae
b10 aak
b10010001111110000110101001111001 aal

#245000
0aan

#250000
1aan

#250010
b10100010100100110011011111110100 aac
1aae
b100 aak
b11110101011111011011001100000110 aal

#255000
0aan

#260000
1aan

#260010
b1000000110101111011011111101000 aac
0aad
0aae
b101001010010111001010010000011 aal

#265000
0aan

#270000
1aan

#270010
b10011111100111100101101110111010 aac
1aad
b111 aak
b1101010000101000000111101001110 aal

#275000
0aan

#280000
1aan

#280010
b10101000000001010011011101010101 aac
1aae
b101000101100100011101100010111 aal

#285000
0aan

#290000
1aan

#290010
b11110011000101110001011010100011 aac
b1 aak
b1010001001101000010001000110000 aal

#295000
0aan

#300000
1aan

#300010
b11000110110111010000100000000 aac
0aad
b111 aak
b1011110011001001100010111000000 aal

#305000
0aan

#310000
1aan

#310010
b11111000110100010110001100110000 aac
0aae
b10 aak
b10011111011100101101011101110001 aal

#315000
0aan

#320000
1aan

#320010
b11111010000011010000001111001101 aac
b11 aak
b11111001111110010011111101011101 aal

#325000
0aan

#330000
1aan

#330010
b101000111011110100101111111 aac
1aad
1aae
b111 aak
b1110010000110101000101110000 aal

#335000
0aan

#340000
1aan

#340010
b11110110001010011001110111010 aac
0aae
b10 aak
b1010000010000011011000000000 aal

#345000
0aan

#350000
1aan

#350010
b10110000010011000001100101111001 aac
0aad
1aae
b111 aak
b1011100000001001000110101111111 aal

#355000
0aan

#360000
1aan

#360010
b10000011010111111100001111011 aac
b110 aak
b1010001011001110101100001100010 aal

#365000
0aan

#370000
1aan

#370010
b11011101011101110101110010010100 aac
1aad
0aae
b10 aak
b110111100000011010011111000011 aal

#375000
0aan

#380000
1aan

#380010
b11000000011000111110000101001 aac
0aad
1aae
b1000011111100001001000011010001 aal

#385000
0aan

#390000
b11 aaa
1aan

#390010
b1000111000110001001000001010110 aac
0aae
b1 aak
b11101011110100001111110000111010 aal

#395000
0aan

#400000
b100 aaa
1aan

#400010
b100001101111011000000100110011 aac
1aae
b0 aak
b1010001100011011011110000101011 aal

#405000
0aan

#410000
b101 aaa
1aan

#410010
b1000011110001010101101100100110 aac
0aae
b10100101101011010011010001010000 aal

#415000
0aan

#420000
b110 aaa
1aan

#420010
b101001001011100010010111000 aac
1aad
b110 aak
b101110111001011010000100010011 aal

#425000
0aan

#430000
b111 aaa
1aan

#430010
b100101011111010011010100011000 aac
0aad
1aae
b0 aak
b101010001110011000100110111100 aal

#435000
0aan

#440000
b1000 aaa
1aan

#440010
b10111100001101011010110011100010 aac
b10 aak
b10101101100001010110001001111101 aal

#445000
0aan

#450000
b1001 aaa
1aan

#450010
b11000001100100000011010101001000 aac
0aae
b101 aak
b1001001110110011001011101101011 aal

#455000
0aan

#460000
b1010 aaa
b101001 aab
1aan

#460010
b10010010011111110001100111000010 aac
b111 aak
b10010011011111110000110000010011 aal

#465000
0aan

#470000
b1011 aaa
b11000001 aab
1aan

#470010
b10101110000110000001111100111101 aac
1aae
b100 aak
b10100011100100000101010011111000 aal

#475000
0aan

#480000
b1100 aaa
b11110100 aab
1aan

#480010
b10110011000100010001001011101101 aac
1aad
0aae
b0 aak
b1110010011101101100111100001110 aal

#485000
0aan

#490000
b1101 aaa
b1100110 aab
1aan

#490010
b1101001011011010000101101111001 aac
b100 aak
b11101101111110110100010001011 aal

#495000
0aan

#500000
b1110 aaa
b1010101 aab
1aan

#500010
b10010100110011100100110010011000 aac
0aad
b11 aak
b1100101100000010110011001101101 aal

#505000
0aan

#510000
b1111 aaa
b1111001 aab
1aan

#510010
b10010110101001011010010111010000 aac
1aad
b101 aak
b1010000001011110001001110011101 aal

#515000
0aan

#520000
b10000 aaa
b1000001 aab
1aan

#520010
b11110100110000011110010110111101 aac
b1 aak
b10111001101010100100001110111100 aal

#525000
0aan

#530000
b10001 aaa
b10100111 aab
1aan

#530010
b10011110011010100011110011100100 aac
0aad
b111011000001000011011001010011 aal

#535000
0aan

#540000
b10 aaa
b0 aab
1aan

#540010
b1001101001101000000000111010101 aac
1aae
b11 aak
b10011011001111001001010111111011 aal

#545000
0aan

#550000
1aan

#550010
b1100010001010101001010010011000 aac
b101 aak
b10110111010100001010100100011111 aal

#555000
0aan

#560000
1aan

#560010
b100010101011100110110110110110 aac
0aae
b1 aak
b10011110001101100100001001001111 aal

#565000
0aan

#570000
1aan

#570010
b1011010101000101100110101011101 aac
1aad
b11 aak
b11010010101010100000011001111 aal

#575000
0aan

#580000
1aan

#580010
b10100111001110000010101100101100 aac
0aad
1aae
b1 aak
b10010111010000110110111111111001 aal

#585000
0aan

#590000
1aan

#590010
b111000101001001010101111010010 aac
1aad
0aae
b101 aak
b11111000000011011110000011011000 aal

#595000
0aan

#600000
1aan

#600010
b1101111100101001101011111100110 aac
0aad
b11 aak
b11100101100001000001001111101111 aal

#605000
0aan

#610000
1aan

#610010
b10001001011110100100111011000101 aac
1aad
b110 aak
b11111011111010100011000100100011 aal

#615000
0aan

#620000
1aan

#620010
b11101011011000110011011001101000 aac
b11 aak
b10110100001100100000101011010111 aal

#625000
0aan

#630000
1aan

#630010
b11010111010101001111010110100101 aac
b10 aak
b1011010001100010001100011010100 aal

#635000
0aan

#640000
1aan

#640010
b101001100110010010001100000010 aac
0aad
1aae
b100 aak
b100110010000100011111001111101 aal

#645000
0aan

#650000
1aan

#650010
b11000111011011111110001100110101 aac
1aad
b11 aak
b10000010001000001111011000011011 aal

#655000
0aan

#660000
1aan

#660010
b10010001101100001001011000011101 aac
0aae
b110 aak
b11011001000101110001000100110011 aal

#665000
0aan

#670000
1aan

#670010
b11111011100010100000100001001001 aac
1aae
b11 aak
b100011110101010011111001000011 aal

#675000
0aan

#680000
1aan

#680010
b10111000110110001010001011011010 aac
0aad
b111 aak
b10110010100010101011000100101001 aal

#685000
0aan

#690000
1aan

#690010
b100010000011011101100001001 aac
1aad
b100 aak
b1100111100110101011110110010 aal

#695000
0aan

#700000
1aan

#700010
b1011100001001111000010110100111 aac
b11 aak
b11011011000101011110110110001010 aal

#705000
0aan

#710000
1aan

#710010
b1010110111000110010101100100010 aac
0aad
b101 aak
b11110001101100100001010000111101 aal

#715000
0aan

#720000
1aan

#720010
b110011001100101111100011101000 aac
1aad
b0 aak
b10000101011000101010011110100010 aal

#725000
0aan

#730000
1aan

#730010
b1110110101001001011100100100010 aac
0aae
b100 aak
b101101111100110001001011111111 aal

#735000
0aan

#740000
1aan

#740010
b11101101100101101011110001010000 aac
0aad
1aae
b110 aak
b111001010100110010000011000101 aal

#745000
0aan

#750000
1aan

#750010
b11001000100111001110100011010001 aac
1aad
b0 aak
b10011011101101100111010110111110 aal

#755000
0aan

#760000
1aan

#760010
b10010011110001010100000010101000 aac
0aae
b11 aak
b101010001010010110010101110000 aal

#765000
0aan

#770000
1aan

#770010
b1000100011010110101000101000011 aac
b100 aak
b10110010111110000001011101110100 aal

#775000
0aan

#780000
b11 aaa
1aan

#780010
b10010111000001000101011100011110 aac
0aad
1aae
b10011101001011001101111101100111 aal

#785000
0aan

#790000
b100 aaa
1aan

#790010
b10001101111000101101010100010001 aac
b1 aak
b11000000001101110101010000011101 aal

#795000
0aan

#800000
b101 aaa
1aan

#800010
b101111101010100101100001000101 aac
b100 aak
b1100101111100011101000011011101 aal

#805000
0aan

#810000
b110 aaa
1aan

#810010
b1110011101111010110101011111101 aac
1aad
0aae
b110111111111111111010101100101 aal

#815000
0aan

#820000
b111 aaa
1aan

#820010
b1000001000111011000000110100111 aac
1aae
b111 aak
b1111101100011101011010101000010 aal

#825000
0aan

#830000
b1000 aaa
1aan

#830010
b1111100111000101110111010010001 aac
0aad
0aae
b11 aak
b10101110101011110111000100111 aal

#835000
0aan

#840000
b1001 aaa
1aan

#840010
b1100000101101000101100000101011 aac
b111 aak
b1001111110100011101101011000110 aal

#845000
0aan

#850000
b1010 aaa
b10 aab
1aan

#850010
b11011010110001111111010010101110 aac
1aad
1aae
b1 aak
b10011110000111101101010001010011 aal

#855000
0aan

#860000
b1011 aaa
b1000011 aab
1aan

#860010
b1110100001001010111100111100000 aac
0aad
b10001001101110100010110010101 aal

#865000
0aan

#870000
b1100 aaa
b11100110 aab
1aan

#870010
b10110110111101100110000011010001 aac
1aad
0aae
b10101101010101010011011111011011 aal

#875000
0aan

#880000
b1101 aaa
b101100 aab
1aan

#880010
b10101001101111110111111000111111 aac
0aad
b10 aak
b11111101100001101101101001101001 aal

#885000
0aan

#890000
b1110 aaa
b10100101 aab
1aan

#890010
b111010101011100001111000011000 aac
b11101000000010110000010000010000 aal

#895000
0aan

#900000
b1111 aaa
b1101000 aab
1aan

#900010
b1100010001010101011000010001000 aac
1aad
1aae
b111 aak
b11000010001001010001101001110100 aal

#905000
0aan

#910000
b10000 aaa
b1010000 aab
1aan

#910010
b10000101000010111100101011101110 aac
b11 aak
b10100101010100100010001110111000 aal

#915000
0aan

#920000
b10001 aaa
b1001001 aab
1aan

#920010
b1000110000001101101100111000111 aac
0aad
b0 aak
b10100001000001001111010001010111 aal

#925000
0aan

#930000
b10 aaa
b0 aab
1aan

#930010
b10101110000011001001010001111000 aac
1aad
0aae
b101 aak
b1101100111010100110010001010111 aal

#935000
0aan

#940000
1aan

#940010
b110111001010111000001011011100 aac
b111 aak
b11110011111010100010011101110100 aal

#945000
0aan

#950000
1aan

#950010
b11100001010110110010111100001110 aac
0aad
b1 aak
b11001001111010101101001110100100 aal

#955000
0aan

#960000
1aan

#960010
b10000100101010001100110101000100 aac
b100 aak
b1000001000000100101000111010110 aal

#965000
0aan

#970000
1aan

#970010
b100111010110001000001010000111 aac
1aad
b11 aak
b1111000110001001011011000010110 aal

#975000
0aan

#980000
1aan

#980010
b1110110101011001110000100000000 aac
1aae
b101 aak
b1101100101110000010111111001000 aal

#985000
0aan

#990000
1aan

#990010
b11001110101111011001010010001011 aac
b111 aak
b110111000000100110110010001000 aal

