ave8_sort_cybusM/ave8_sort/simulation_work/sim_cycle_ave8/ave8_MA_test.vcd
$date
     Nov 11, 2011       09:47:17
$end

$version
              SystemC 2.2.0 --- Dec  3 2010 14:35:03
$end

$timescale
     1 ps
$end

$scope module SystemC $end
$var wire   32  aaa  Cysim_State [31:0]  $end
$var wire    8  aab  out0 [7:0]  $end
$var wire    8  aac  in0 [7:0]  $end
$var wire    1  aad  ave8_MA_bus1_CBM_data_ready       $end
$var wire    1  aae  ave8_MA_bus1_CBM_command_busy       $end
$var wire   32  aaf  ave8_MA_bus1_CBM_write_data [31:0]  $end
$var wire    1  aag  ave8_MA_bus1_CBM_lock       $end
$var wire    3  aah  ave8_MA_bus1_CBM_size [2:0]  $end
$var wire   11  aai  ave8_MA_bus1_CBM_length [10:0]  $end
$var wire   32  aaj  ave8_MA_bus1_CBM_addr [31:0]  $end
$var wire    3  aak  ave8_MA_bus1_CBM_burst [2:0]  $end
$var wire    1  aal  ave8_MA_bus1_CBM_write_req       $end
$var wire    1  aam  ave8_MA_bus1_CBM_read_req       $end
$var wire   11  aan  ave8_MA_bus1_CBM_count [10:0]  $end
$var wire    1  aao  ave8_MA_bus1_CBM_error       $end
$var wire   32  aap  ave8_MA_bus1_CBM_read_data [31:0]  $end
$var wire    1  aaq  bus1_HRESETn       $end
$var wire    1  aar  bus1_HCLK       $end
$upscope $end
$enddefinitions  $end

$comment
All initial values are dumped below at time 0 sec = 0 timescale units.
$end

$dumpvars
b0 aaa
b0 aab
b0 aac
0aad
0aae
b0 aaf
0aag
b0 aah
b0 aai
b0 aaj
b0 aak
0aal
0aam
b0 aan
0aao
b0 aap
0aaq
0aar
$end

#10000
1aar

#10010
b11111011 aac
1aad
b11001110101 aan
1aao
b10001100011111110000101010101100 aap

#15000
0aar

#20000
1aar

#25000
0aar

#30000
1aar

#32510
1aaq

#35000
0aar

#40000
b1 aaa
b11111 aab
1aar

#45000
0aar

#50000
b10 aaa
b0 aab
1aar

#50010
b11110010 aac
1aae
b10000001001 aan
b10001011011111010111011011000011 aap

#55000
0aar

#60000
1aar

#60010
b10001100 aac
0aad
0aae
b10001000110 aan
b1110000000001011011011100100100 aap

#65000
0aar

#70000
1aar

#70010
b10101110 aac
1aad
1aae
b10111100110 aan
b1100010001010010011100100111010 aap

#75000
0aar

#80000
1aar

#80010
b1001000 aac
b11010100101 aan
b10010001011010110101111001011000 aap

#85000
0aar

#90000
1aar

#90010
b11000101 aac
0aae
b1110011 aan
0aao
b10110010011100001101100001001 aap

#95000
0aar

#100000
b11 aaa
b11111 aaf
b10 aah
b1 aai
b10000000000001111111100000000 aaj
1aal
1aar

#100010
b1100011 aac
0aad
b10110101111 aan
1aao
b11000111001101010100011111111110 aap

#105000
0aar

#110000
b1 aaa
b101011 aab
b0 aaf
b0 aah
b0 aai
b0 aaj
0aal
1aar

#110010
b110001 aab
b10010011 aac
1aad
1aae
b1011110011 aan
b11001100100101011010011111011000 aap

#115000
0aar

#120000
b10 aaa
b0 aab
1aar

#120010
b10111001 aac
b10100100000 aan
b11110010001110011101110001110 aap

#125000
0aar

#130000
1aar

#130010
b10010111 aac
0aad
0aae
b1000011111 aan
0aao
b11110001110101011101001001111111 aap

#135000
0aar

#140000
1aar

#140010
b11100 aac
1aad
b10111001011 aan
b1000011101110011110101010100011 aap

#145000
0aar

#150000
b11 aaa
b110001 aaf
b10 aah
b1 aai
b10000000000001111111100000000 aaj
1aal
1aar

#150010
b10000101 aac
b10000000 aan
b10010001100001001110001100100010 aap

#155000
0aar

#160000
b1 aaa
b1000010 aab
b0 aaf
b0 aah
b0 aai
b0 aaj
0aal
1aar

#160010
b10000100 aac
1aae
b1011110100 aan
b10011100101100100100111000100110 aap

#165000
0aar

#170000
b10 aaa
b0 aab
1aar

#170010
b1 aac
0aad
b10110111010 aan
b10101110100010111100011001101001 aap

#175000
0aar

#180000
1aar

#180010
b1100110 aac
1aad
b11110101001 aan
1aao
b10110010100101111111010101000001 aap

#185000
0aar

#190000
1aar

#190010
b10000000 aac
0aae
b110101110 aan
b10101011101011101110110001110111 aap

#195000
0aar

#200000
b11 aaa
b1000010 aaf
b10 aah
b1 aai
b10000000000001111111100000000 aaj
1aal
1aar

#200010
b10101010 aac
b11000110101 aan
b1010000101111111110100110001110 aap

#205000
0aar

#210000
b1 aaa
b1010111 aab
b0 aaf
b0 aah
b0 aai
b0 aaj
0aal
1aar

#210010
b1001000 aab
b101111 aac
0aad
b101000100 aan
b1110000010010000011000001010100 aap

#215000
0aar

#220000
b10 aaa
b0 aab
1aar

#220010
b10110100 aac
b10010000011 aan
0aao
b110101011110001111001001111111 aap

#225000
0aar

#230000
1aar

#230010
b10111010 aac
1aad
b10010001111 aan
b1000000110101111011011111101000 aap

#235000
0aar

#240000
b11 aaa
b1001000 aaf
b10 aah
b1 aai
b10000000000001111111100000000 aaj
1aal
1aar

#240010
b110000 aac
1aae
b1110001101 aan
1aao
b101000101100100011101100010111 aap

#245000
0aar

#250000
b1 aaa
b1001110 aab
b0 aaf
b0 aah
b0 aai
b0 aaj
0aal
1aar

#250010
b1010100 aab
b1011111 aac
0aad
b10101001 aan
b100011010111111111010100110001 aap

#255000
0aar

#260000
b10 aaa
b0 aab
1aar

#260010
b100100 aac
b100000000 aan
0aao
b11010010001011001001110011000101 aap

#265000
0aar

#270000
1aar

#270010
b101010 aac
b11101011101 aan
b11000100110011110011110100010 aap

#275000
0aar

#280000
1aar

#280010
b1111111 aac
1aad
b11111100111 aan
b11111010000011010000001111001101 aap

#285000
0aar

#290000
1aar

#290010
0aad
b101110010 aan
b1010000010000011011000000000 aap

#295000
0aar

#300000
1aar

#300010
b111110 aac
b10000010 aan
1aao
b1001011110011111101100000010111 aap

#305000
0aar

#310000
1aar

#310010
b10101110 aac
b1111011 aan
0aao
b1101010000011010010001110100011 aap

#315000
0aar

#320000
1aar

#320010
b1110 aac
1aad
0aae
b11010001 aan
b10010001000011001100101011100011 aap

#325000
0aar

#330000
b11 aaa
b1010100 aaf
b10 aah
b1 aai
b10000000000001111111100000000 aaj
1aal
1aar

#330010
b1010110 aac
0aad
b1011000001 aan
b11000000011000111110000101001 aap

#335000
0aar

#340000
b1 aaa
b1011110 aab
b0 aaf
b0 aah
b0 aai
b0 aaj
0aal
1aar

#340010
b1010000 aac
1aad
b1011 aan
b1010001100011011011110000101011 aap

#345000
0aar

#350000
b10 aaa
b0 aab
1aar

#350010
b10101110 aac
b10010000000 aan
b10110111011000010011100000100000 aap

#355000
0aar

#360000
b11 aaa
b1011110 aaf
b10 aah
b1 aai
b10000000000001111111100000000 aaj
1aal
1aar

#360010
b1001101 aac
0aad
b10010111000 aan
1aao
b10010110001001011011011000101010 aap

#365000
0aar

#370000
b1 aaa
b1100111 aab
b0 aaf
b0 aah
b0 aai
b0 aaj
0aal
1aar

#370010
b1101001 aab
b1011110 aac
1aad
b1001111101 aan
0aao
b1001100111011100100011110 aap

#375000
0aar

#380000
b10 aaa
b0 aab
1aar

#380010
b1001000 aac
0aad
b10100001101 aan
1aao
b10111100001101011010110011100010 aap

#385000
0aar

#390000
1aar

#390010
b11111000 aac
b11101001000 aan
b10010011011111110000110000010011 aap

#395000
0aar

#400000
1aar

#400010
b1100000 aac
1aae
b1111101100 aan
b111001000110111110000010110100 aap

#405000
0aar

#410000
1aar

#410010
b1010110 aac
b1011101101 aan
b11011000101011100011110100000100 aap

#415000
0aar

#420000
1aar

#420010
b10000 aac
b11001101101 aan
b11010000010101010000110111001101 aap

#425000
0aar

#430000
1aar

#430010
b11010000 aac
1aad
0aae
b10010101 aan
b10010100110011100100110010011000 aap

#435000
0aar

#440000
b11 aaa
b1101001 aaf
b10 aah
b1 aai
b10000000000001111111100000000 aaj
1aal
1aar

#440010
b1010011 aac
1aae
b1101110110 aan
b10111001101010100100001110111100 aap

#445000
0aar

#450000
b1 aaa
b1110100 aab
b0 aaf
b0 aah
b0 aai
b0 aaj
0aal
1aar

#450010
b10001001 aab
b11111011 aac
0aae
b1110100000 aan
0aao
b10100100110111001000101010100001 aap

#455000
0aar

#460000
b10 aaa
b0 aab
1aar

#460010
b1000111 aac
1aae
b111010101 aan
b100111010011101100001111001 aap

#465000
0aar

#470000
1aar

#470010
b101000 aac
0aad
b1001001111 aan
b1001010010000101000011010111000 aap

#475000
0aar

#480000
1aar

#480010
b1011101 aac
1aad
0aae
b1100001011 aan
1aao
b100010101011100110110110110110 aap

#485000
0aar

#490000
b11 aaa
b10001001 aaf
b10 aah
b1 aai
b10000000000001111111100000000 aaj
1aal
1aar

#490010
b11011000 aac
0aad
b1011011111 aan
b10010111010000110110111111111001 aap

#495000
0aar

#500000
b1 aaa
b10000100 aab
b0 aaf
b0 aah
b0 aai
b0 aaj
0aal
1aar

#500010
b1101010 aab
b11 aac
1aad
b1000011 aan
0aao
b10100110111100000011110101111101 aap

#505000
0aar

#510000
b10 aaa
b0 aab
1aar

#510010
b11111110 aac
0aad
1aae
b11111100110 aan
b1011110000110001000100011101010 aap

#515000
0aar

#520000
1aar

#520010
b1011 aac
b1011010111 aan
1aao
b11001110011000101011101010111101 aap

#525000
0aar

#530000
1aar

#530010
b10100101 aac
1aad
0aae
b10010001010 aan
0aao
b11101011011000110011011001101000 aap

#535000
0aar

#540000
b11 aaa
b1101010 aaf
b10 aah
b1 aai
b10000000000001111111100000000 aaj
1aal
1aar

#540010
b11011 aac
0aad
b1001101111 aan
b100110010000100011111001111101 aap

#545000
0aar

#550000
b1 aaa
b1011011 aab
b0 aaf
b0 aah
b0 aai
b0 aaj
0aal
1aar

#550010
b1101101 aab
b10101110 aac
1aad
1aae
b1010010111 aan
1aao
b10011101100101010100111111010011 aap

#555000
0aar

#560000
b10 aaa
b0 aab
1aar

#560010
b100111 aac
b11000011101 aan
b11001110101011000111010010010100 aap

#565000
0aar

#570000
1aar

#570010
b101110 aac
b100101001 aan
b10001101101001110110110001001 aap

#575000
0aar

#580000
1aar

#580010
b1001 aac
b1101101100 aan
0aao
b10111000110110001010001011011010 aap

#585000
0aar

#590000
1aar

#590010
b111101 aac
b110101101 aan
1aao
b11011011000101011110110110001010 aap

#595000
0aar

#600000
1aar

#600010
b1011000 aac
0aad
0aae
b10000101100 aan
b10111010111000001010100101010101 aap

#605000
0aar

#610000
1aar

#610010
b0 aac
1aae
b11101000 aan
b1101111010010001100000100001 aap

#615000
0aar

#620000
1aar

#620010
b11111110 aac
1aad
0aae
b11000101 aan
0aao
b11001011001011111100010111001011 aap

#625000
0aar

#630000
b11 aaa
b1101101 aaf
b10 aah
b1 aai
b10000000000001111111100000000 aaj
1aal
1aar

#630010
b11010001 aac
1aae
b10001000 aan
b11101101100101101011110001010000 aap

#635000
0aar

#640000
b1 aaa
b1110111 aab
b0 aaf
b0 aah
b0 aai
b0 aaj
0aal
1aar

#640010
b1101011 aab
b1110100 aac
0aad
b10101111000 aan
1aao
b101010001010010110010101110000 aap

#645000
0aar

#650000
b10 aaa
b0 aab
1aar

#650010
b11111100 aac
1aad
b11000011001 aan
0aao
b111100111001101000101100100100 aap

#655000
0aar

#660000
1aar

#660010
b100001 aac
b11100011110 aan
b10001001000111110011101100100011 aap

#665000
0aar

#670000
1aar

#670010
b10 aac
0aae
b11011101 aan
1aao
b1001111110110111010000010010010 aap

#675000
0aar

#680000
b11 aaa
b1101011 aaf
b10 aah
b1 aai
b10000000000001111111100000000 aaj
1aal
1aar

#680010
b11111101 aac
b1110001100 aan
b101111101010100101100001000101 aap

#685000
0aar

#690000
b1 aaa
b10000101 aab
b0 aaf
b0 aah
b0 aai
b0 aaj
0aal
1aar

#690010
b1101010 aab
b100111 aac
1aae
b1011011 aan
b1111101100011101011010101000010 aap

#695000
0aar

#700000
b10 aaa
b0 aab
1aar

#700010
b11000111 aac
0aad
b10110011110 aan
0aao
b1110110110101111111111001011 aap

#705000
0aar

#710000
1aar

#710010
b101001 aac
1aad
b101011 aan
b10110010010000111001000100010010 aap

#715000
0aar

#720000
1aar

#720010
b11110010 aac
b10110010101 aan
b110010100010101100001011101 aap

#725000
0aar

#730000
1aar

#730010
b11010001 aac
0aae
b101001001 aan
1aao
b1110100001001010111100111100000 aap

#735000
0aar

#740000
b11 aaa
b1101010 aaf
b10 aah
b1 aai
b10000000000001111111100000000 aaj
1aal
1aar

#740010
b10000 aac
b11110000000 aan
0aao
b11111101100001101101101001101001 aap

#745000
0aar

#750000
b1 aaa
b1100000 aab
b0 aaf
b0 aah
b0 aai
b0 aaj
0aal
1aar

#750010
b1110110 aab
b10111111 aac
0aad
b1001011110 aan
b1000011011010010001100001101010 aap

#755000
0aar

#760000
b10 aaa
b0 aab
1aar

#760010
b1011101 aac
1aad
b10001000 aan
1aao
b1010001111011001010010011000011 aap

#765000
0aar

#770000
b11 aaa
b1110110 aaf
b10 aah
b1 aai
b10000000000001111111100000000 aaj
1aal
1aar

#770010
b1001000 aac
b10001010111 aan
0aao
b11010100101111111001011101111011 aap

#775000
0aar

#780000
b1 aaa
b1110101 aab
b0 aaf
b0 aah
b0 aai
b0 aaj
0aal
1aar

#780010
b1111011 aab
b1111000 aac
b10000001101 aan
1aao
b1000110000001101101100111000111 aap

#785000
0aar

#790000
b10 aaa
b0 aab
1aar

#790010
b10100100 aac
0aad
1aae
b1101000000 aan
b11110011111010100010011101110100 aap

#795000
0aar

#800000
1aar

#800010
b11100 aac
0aae
b10110101010 aan
0aao
b11110010100001101110000100011001 aap

#805000
0aar

#810000
1aar

#810010
b1111010 aac
1aad
b10101000100 aan
b110110100110111001110100010100 aap

#815000
0aar

#820000
b11 aaa
b1111011 aaf
b10 aah
b1 aai
b10000000000001111111100000000 aaj
1aal
1aar

#820010
b101 aac
1aae
b11111001000 aan
1aao
b110101000111001100001001010011 aap

#825000
0aar

#830000
b1 aaa
b1110000 aab
b0 aaf
b0 aah
b0 aai
b0 aaj
0aal
1aar

#830010
b10000001 aab
b10001011 aac
b10011001111 aan
0aao
b1110110101011001110000100000000 aap

#835000
0aar

#840000
b10 aaa
b0 aab
1aar

#840010
b1001010 aac
0aad
b101011100 aan
1aao
b11011101001001011010010000000100 aap

#845000
0aar

#850000
1aar

#850010
b11100011 aac
1aad
b10110110001 aan
0aao
b100001110011110011011100110100 aap

#855000
0aar

#860000
1aar

#860010
b10011110 aac
0aae
b10101110101 aan
b10010000101111110111001101101001 aap

#865000
0aar

#870000
b11 aaa
b10000001 aaf
b10 aah
b1 aai
b10000000000001111111100000000 aaj
1aal
1aar

#870010
b11111100 aac
0aad
1aae
b11110101011 aan
b1111100111100010100000110110101 aap

#875000
0aar

#880000
b1 aaa
b10000001 aab
b0 aaf
b0 aah
b0 aai
b0 aaj
0aal
1aar

#880010
b1111111 aab
b11101010 aac
b1101010111 aan
1aao
b11000011111011000101101100010010 aap

#885000
0aar

#890000
b10 aaa
b0 aab
1aar

#890010
b10011010 aac
b10001011110 aan
0aao
b10101010110110010110000110101 aap

#895000
0aar

#900000
1aar

#900010
b11001001 aac
b11000111010 aan
1aao
b11110110010000010111011001111100 aap

#905000
0aar

#910000
1aar

#910010
b10100111 aac
0aae
b1101111001 aan
b11001101011001101110100101100 aap

#915000
0aar

#920000
1aar

#920010
b11111000 aac
1aae
b11111111000 aan
b10101011011111111010011010001000 aap

#925000
0aar

#930000
1aar

#930010
b11100011 aac
b11101001111 aan
0aao
b10010110000111101111101000010110 aap

#935000
0aar

#940000
1aar

#940010
b11000010 aac
1aad
0aae
b10111000111 aan
1aao
b11111010001111010001111100000110 aap

#945000
0aar

#950000
b11 aaa
b1111111 aaf
b10 aah
b1 aai
b10000000000001111111100000000 aaj
1aal
1aar

#950010
b10010111 aac
b10000111000 aan
0aao
b11110110001010010111011000111100 aap

#955000
0aar

#960000
b1 aaa
b10010001 aab
b0 aaf
b0 aah
b0 aai
b0 aaj
0aal
1aar

#960010
b10001001 aab
b1010111 aac
b1001100100 aan
b11110000111111100010000100011000 aap

#965000
0aar

#970000
b10 aaa
b0 aab
1aar

#970010
b1100101 aac
b10011001 aan
b11011111110100010101011000011110 aap

#975000
0aar

#980000
b11 aaa
b10001001 aaf
b10 aah
b1 aai
b10000000000001111111100000000 aaj
1aal
1aar

#980010
b1110011 aac
1aae
b10110011011 aan
1aao
b10011110001011010010101010111001 aap

#985000
0aar

#990000
b1 aaa
b10000010 aab
b0 aaf
b0 aah
b0 aai
b0 aaj
0aal
1aar

#990010
b1110100 aab
b111 aac
0aad
0aae
b1110110011 aan
b100101111011001000111100110101 aap

#995000
0aar

#1000000
b10 aaa
1aar

